Dados/APD/12-06-2024/300nm concent.100-1 20g temp.22 T0122CH4.CSV

Model,MSO2024B
Firmware Version,1.56

Point Format,Y,
Horizontal Units,S,
Horizontal Scale,40,
Sample Interval,0.0032,
Filter Frequency,1375,
Record Length,125000,
Gating,0.0% to 100.0%,
Probe Attenuation,10,
Vertical Units,V,
Vertical Offset,0,
Vertical Scale,0.5,
Label,,
TIME,CH4,CH4 Peak Detect
-2.00000e+02,1.47,1.83
-1.99997e+02,1.47,1.09
-1.99994e+02,1.47,1.87
-1.99990e+02,1.47,1.11
-1.99987e+02,1.47,1.85
-1.99984e+02,1.47,1.11
-1.99981e+02,1.47,1.93
-1.99978e+02,1.47,1.11
-1.99974e+02,1.47,1.89
-1.99971e+02,1.45,1.07
-1.99968e+02,1.45,1.89
-1.99965e+02,1.47,1.09
-1.99962e+02,1.47,1.85
-1.99958e+02,1.47,1.09
-1.99955e+02,1.47,1.87
-1.99952e+02,1.47,1.13
-1.99949e+02,1.47,1.91
-1.99946e+02,1.47,1.09
-1.99942e+02,1.47,1.83
-1.99939e+02,1.45,1.11
-1.99936e+02,1.45,1.89
-1.99933e+02,1.47,1.09
-1.99930e+02,1.47,1.91
-1.99926e+02,1.47,1.09
-1.99923e+02,1.45,1.85
-1.99920e+02,1.45,1.09
-1.99917e+02,1.45,1.91
-1.99914e+02,1.45,1.09
-1.99910e+02,1.45,1.85
-1.99907e+02,1.47,1.07
-1.99904e+02,1.47,1.85
-1.99901e+02,1.47,1.11
-1.99898e+02,1.49,1.87
-1.99894e+02,1.47,1.09
-1.99891e+02,1.47,1.93
-1.99888e+02,1.47,1.11
-1.99885e+02,1.47,1.89
-1.99882e+02,1.47,1.09
-1.99878e+02,1.47,1.91
-1.99875e+02,1.45,1.09
-1.99872e+02,1.45,1.85
-1.99869e+02,1.45,1.09
-1.99866e+02,1.43,1.85
-1.99862e+02,1.43,1.07
-1.99859e+02,1.43,1.85
-1.99856e+02,1.43,1.07
-1.99853e+02,1.43,1.81
-1.99850e+02,1.43,1.07
-1.99846e+02,1.43,1.83
-1.99843e+02,1.43,1.07
-1.99840e+02,1.43,1.83
-1.99837e+02,1.43,1.05
-1.99834e+02,1.43,1.85
-1.99830e+02,1.41,1.05
-1.99827e+02,1.43,1.89
-1.99824e+02,1.41,1.03
-1.99821e+02,1.41,1.83
-1.99818e+02,1.43,1.01
-1.99814e+02,1.41,1.81
-1.99811e+02,1.43,1.07
-1.99808e+02,1.43,1.83
-1.99805e+02,1.43,1.07
-1.99802e+02,1.43,1.85
-1.99798e+02,1.43,1.05
-1.99795e+02,1.43,1.83
-1.99792e+02,1.43,1.03
-1.99789e+02,1.43,1.83
-1.99786e+02,1.43,1.09
-1.99782e+02,1.43,1.87
-1.99779e+02,1.43,1.07
-1.99776e+02,1.45,1.83
-1.99773e+02,1.45,1.07
-1.99770e+02,1.45,1.83
-1.99766e+02,1.45,1.09
-1.99763e+02,1.45,1.87
-1.99760e+02,1.45,1.07
-1.99757e+02,1.45,1.85
-1.99754e+02,1.45,1.09
-1.99750e+02,1.45,1.85
-1.99747e+02,1.45,1.09
-1.99744e+02,1.45,1.85
-1.99741e+02,1.45,1.07
-1.99738e+02,1.45,1.85
-1.99734e+02,1.45,1.09
-1.99731e+02,1.45,1.83
-1.99728e+02,1.45,1.09
-1.99725e+02,1.45,1.87
-1.99722e+02,1.45,1.09
-1.99718e+02,1.45,1.85
-1.99715e+02,1.47,1.09
-1.99712e+02,1.47,1.85
-1.99709e+02,1.45,1.07
-1.99706e+02,1.45,1.87
-1.99702e+02,1.45,1.11
-1.99699e+02,1.45,1.91
-1.99696e+02,1.45,1.07
-1.99693e+02,1.45,1.85
-1.99690e+02,1.47,1.07
-1.99686e+02,1.47,1.87
-1.99683e+02,1.47,1.09
-1.99680e+02,1.45,1.85
-1.99677e+02,1.45,1.07
-1.99674e+02,1.45,1.91
-1.99670e+02,1.45,1.09
-1.99667e+02,1.45,1.83
-1.99664e+02,1.45,1.07
-1.99661e+02,1.43,1.85
-1.99658e+02,1.43,1.03
-1.99654e+02,1.45,1.83
-1.99651e+02,1.43,1.07
-1.99648e+02,1.43,1.83
-1.99645e+02,1.45,1.07
-1.99642e+02,1.45,1.81
-1.99638e+02,1.45,1.07
-1.99635e+02,1.45,1.85
-1.99632e+02,1.45,1.09
-1.99629e+02,1.45,1.85
-1.99626e+02,1.45,1.07
-1.99622e+02,1.45,1.85
-1.99619e+02,1.45,1.07
-1.99616e+02,1.45,1.85
-1.99613e+02,1.47,1.09
-1.99610e+02,1.47,1.85
-1.99606e+02,1.47,1.05
-1.99603e+02,1.47,1.85
-1.99600e+02,1.47,1.09
-1.99597e+02,1.47,1.85
-1.99594e+02,1.47,1.07
-1.99590e+02,1.47,1.87
-1.99587e+02,1.47,1.11
-1.99584e+02,1.47,1.89
-1.99581e+02,1.49,1.11
-1.99578e+02,1.49,1.87
-1.99574e+02,1.49,1.11
-1.99571e+02,1.49,1.91
-1.99568e+02,1.49,1.13
-1.99565e+02,1.49,1.89
-1.99562e+02,1.49,1.05
-1.99558e+02,1.49,1.91
-1.99555e+02,1.49,1.11
-1.99552e+02,1.49,1.89
-1.99549e+02,1.47,1.13
-1.99546e+02,1.47,1.89
-1.99542e+02,1.47,1.09
-1.99539e+02,1.47,1.91
-1.99536e+02,1.47,1.11
-1.99533e+02,1.47,1.89
-1.99530e+02,1.47,1.05
-1.99526e+02,1.49,1.87
-1.99523e+02,1.49,1.11
-1.99520e+02,1.47,1.89
-1.99517e+02,1.47,1.13
-1.99514e+02,1.47,1.93
-1.99510e+02,1.47,1.11
-1.99507e+02,1.47,1.85
-1.99504e+02,1.47,1.09
-1.99501e+02,1.47,1.87
-1.99498e+02,1.45,1.07
-1.99494e+02,1.45,1.83
-1.99491e+02,1.45,1.09
-1.99488e+02,1.45,1.87
-1.99485e+02,1.45,1.07
-1.99482e+02,1.45,1.85
-1.99478e+02,1.45,1.07
-1.99475e+02,1.47,1.83
-1.99472e+02,1.47,1.09
-1.99469e+02,1.45,1.85
-1.99466e+02,1.45,1.07
-1.99462e+02,1.45,1.85
-1.99459e+02,1.47,1.05
-1.99456e+02,1.47,1.93
-1.99453e+02,1.47,1.09
-1.99450e+02,1.47,1.89
-1.99446e+02,1.47,1.09
-1.99443e+02,1.47,1.87
-1.99440e+02,1.47,1.11
-1.99437e+02,1.47,1.87
-1.99434e+02,1.47,1.09
-1.99430e+02,1.47,1.83
-1.99427e+02,1.47,1.09
-1.99424e+02,1.45,1.85
-1.99421e+02,1.45,1.09
-1.99418e+02,1.47,1.87
-1.99414e+02,1.47,1.07
-1.99411e+02,1.47,1.87
-1.99408e+02,1.47,1.09
-1.99405e+02,1.47,1.87
-1.99402e+02,1.47,1.11
-1.99398e+02,1.47,1.89
-1.99395e+02,1.47,1.13
-1.99392e+02,1.47,1.87
-1.99389e+02,1.47,1.11
-1.99386e+02,1.47,1.87
-1.99382e+02,1.47,1.09
-1.99379e+02,1.47,1.89
-1.99376e+02,1.49,1.09
-1.99373e+02,1.49,1.87
-1.99370e+02,1.49,1.11
-1.99366e+02,1.47,1.85
-1.99363e+02,1.47,1.13
-1.99360e+02,1.47,1.89
-1.99357e+02,1.47,1.05
-1.99354e+02,1.47,1.89
-1.99350e+02,1.47,1.11
-1.99347e+02,1.47,1.85
-1.99344e+02,1.47,1.07
-1.99341e+02,1.49,1.93
-1.99338e+02,1.49,1.11
-1.99334e+02,1.47,1.89
-1.99331e+02,1.47,1.11
-1.99328e+02,1.47,1.87
-1.99325e+02,1.47,1.07
-1.99322e+02,1.45,1.87
-1.99318e+02,1.45,1.11
-1.99315e+02,1.45,1.87
-1.99312e+02,1.45,1.09
-1.99309e+02,1.45,1.83
-1.99306e+02,1.43,1.07
-1.99302e+02,1.45,1.83
-1.99299e+02,1.45,1.05
-1.99296e+02,1.43,1.85
-1.99293e+02,1.45,1.07
-1.99290e+02,1.45,1.85
-1.99286e+02,1.45,1.09
-1.99283e+02,1.45,1.81
-1.99280e+02,1.45,1.09
-1.99277e+02,1.45,1.87
-1.99274e+02,1.47,1.07
-1.99270e+02,1.45,1.83
-1.99267e+02,1.47,1.09
-1.99264e+02,1.45,1.87
-1.99261e+02,1.47,1.09
-1.99258e+02,1.45,1.85
-1.99254e+02,1.45,1.09
-1.99251e+02,1.45,1.85
-1.99248e+02,1.45,1.09
-1.99245e+02,1.45,1.81
-1.99242e+02,1.45,1.07
-1.99238e+02,1.47,1.85
-1.99235e+02,1.47,1.07
-1.99232e+02,1.47,1.87
-1.99229e+02,1.47,1.13
-1.99226e+02,1.47,1.87
-1.99222e+02,1.47,1.11
-1.99219e+02,1.45,1.85
-1.99216e+02,1.45,1.07
-1.99213e+02,1.45,1.87
-1.99210e+02,1.45,1.07
-1.99206e+02,1.45,1.83
-1.99203e+02,1.45,1.07
-1.99200e+02,1.45,1.89
-1.99197e+02,1.45,1.05
-1.99194e+02,1.45,1.83
-1.99190e+02,1.45,1.07
-1.99187e+02,1.45,1.85
-1.99184e+02,1.45,1.07
-1.99181e+02,1.45,1.85
-1.99178e+02,1.45,1.09
-1.99174e+02,1.43,1.83
-1.99171e+02,1.43,1.09
-1.99168e+02,1.45,1.83
-1.99165e+02,1.45,1.05
-1.99162e+02,1.45,1.85
-1.99158e+02,1.43,1.07
-1.99155e+02,1.43,1.85
-1.99152e+02,1.43,1.07
-1.99149e+02,1.43,1.83
-1.99146e+02,1.43,1.09
-1.99142e+02,1.43,1.81
-1.99139e+02,1.45,1.03
-1.99136e+02,1.45,1.83
-1.99133e+02,1.45,1.11
-1.99130e+02,1.45,1.85
-1.99126e+02,1.45,1.07
-1.99123e+02,1.45,1.87
-1.99120e+02,1.45,1.07
-1.99117e+02,1.45,1.87
-1.99114e+02,1.43,1.03
-1.99110e+02,1.45,1.85
-1.99107e+02,1.43,1.07
-1.99104e+02,1.45,1.85
-1.99101e+02,1.45,1.05
-1.99098e+02,1.45,1.89
-1.99094e+02,1.45,1.05
-1.99091e+02,1.43,1.85
-1.99088e+02,1.43,1.05
-1.99085e+02,1.43,1.83
-1.99082e+02,1.43,1.07
-1.99078e+02,1.43,1.83
-1.99075e+02,1.43,1.09
-1.99072e+02,1.43,1.85
-1.99069e+02,1.43,1.07
-1.99066e+02,1.43,1.81
-1.99062e+02,1.43,1.07
-1.99059e+02,1.43,1.83
-1.99056e+02,1.43,1.07
-1.99053e+02,1.43,1.83
-1.99050e+02,1.43,1.05
-1.99046e+02,1.45,1.81
-1.99043e+02,1.45,1.07
-1.99040e+02,1.47,1.83
-1.99037e+02,1.47,1.07
-1.99034e+02,1.47,1.85
-1.99030e+02,1.47,1.09
-1.99027e+02,1.47,1.89
-1.99024e+02,1.47,1.11
-1.99021e+02,1.47,1.91
-1.99018e+02,1.47,1.09
-1.99014e+02,1.47,1.87
-1.99011e+02,1.47,1.11
-1.99008e+02,1.47,1.87
-1.99005e+02,1.45,1.09
-1.99002e+02,1.45,1.87
-1.98998e+02,1.45,1.09
-1.98995e+02,1.43,1.87
-1.98992e+02,1.43,1.09
-1.98989e+02,1.43,1.85
-1.98986e+02,1.43,1.07
-1.98982e+02,1.45,1.83
-1.98979e+02,1.45,1.07
-1.98976e+02,1.45,1.83
-1.98973e+02,1.45,1.05
-1.98970e+02,1.45,1.85
-1.98966e+02,1.45,1.09
-1.98963e+02,1.45,1.87
-1.98960e+02,1.45,1.09
-1.98957e+02,1.45,1.83
-1.98954e+02,1.47,1.07
-1.98950e+02,1.45,1.85
-1.98947e+02,1.45,1.07
-1.98944e+02,1.45,1.85
-1.98941e+02,1.45,1.09
-1.98938e+02,1.47,1.87
-1.98934e+02,1.47,1.07
-1.98931e+02,1.49,1.85
-1.98928e+02,1.49,1.07
-1.98925e+02,1.51,1.89
-1.98922e+02,1.51,1.11
-1.98918e+02,1.51,1.91
-1.98915e+02,1.51,1.11
-1.98912e+02,1.51,1.89
-1.98909e+02,1.51,1.13
-1.98906e+02,1.49,1.93
-1.98902e+02,1.49,1.15
-1.98899e+02,1.47,1.89
-1.98896e+02,1.47,1.13
-1.98893e+02,1.45,1.91
-1.98890e+02,1.47,1.11
-1.98886e+02,1.45,1.91
-1.98883e+02,1.45,1.09
-1.98880e+02,1.45,1.85
-1.98877e+02,1.45,1.09
-1.98874e+02,1.45,1.85
-1.98870e+02,1.43,1.09
-1.98867e+02,1.43,1.83
-1.98864e+02,1.45,1.07
-1.98861e+02,1.47,1.83
-1.98858e+02,1.47,1.05
-1.98854e+02,1.47,1.87
-1.98851e+02,1.47,1.11
-1.98848e+02,1.47,1.87
-1.98845e+02,1.47,1.13
-1.98842e+02,1.47,1.89
-1.98838e+02,1.47,1.09
-1.98835e+02,1.47,1.85
-1.98832e+02,1.47,1.09
-1.98829e+02,1.45,1.87
-1.98826e+02,1.45,1.09
-1.98822e+02,1.45,1.87
-1.98819e+02,1.45,1.09
-1.98816e+02,1.43,1.83
-1.98813e+02,1.43,1.09
-1.98810e+02,1.43,1.85
-1.98806e+02,1.43,1.05
-1.98803e+02,1.43,1.83
-1.98800e+02,1.43,1.07
-1.98797e+02,1.45,1.81
-1.98794e+02,1.45,1.07
-1.98790e+02,1.45,1.85
-1.98787e+02,1.43,1.07
-1.98784e+02,1.45,1.83
-1.98781e+02,1.45,1.07
-1.98778e+02,1.45,1.83
-1.98774e+02,1.45,1.05
-1.98771e+02,1.47,1.85
-1.98768e+02,1.47,1.07
-1.98765e+02,1.45,1.89
-1.98762e+02,1.47,1.09
-1.98758e+02,1.47,1.93
-1.98755e+02,1.47,1.07
-1.98752e+02,1.47,1.85
-1.98749e+02,1.47,1.05
-1.98746e+02,1.47,1.85
-1.98742e+02,1.47,1.09
-1.98739e+02,1.47,1.87
-1.98736e+02,1.49,1.13
-1.98733e+02,1.49,1.87
-1.98730e+02,1.47,1.11
-1.98726e+02,1.47,1.89
-1.98723e+02,1.49,1.07
-1.98720e+02,1.49,1.89
-1.98717e+02,1.49,1.11
-1.98714e+02,1.49,1.85
-1.98710e+02,1.49,1.11
-1.98707e+02,1.49,1.87
-1.98704e+02,1.49,1.11
-1.98701e+02,1.49,1.93
-1.98698e+02,1.47,1.09
-1.98694e+02,1.49,1.91
-1.98691e+02,1.47,1.11
-1.98688e+02,1.49,1.87
-1.98685e+02,1.49,1.11
-1.98682e+02,1.49,1.89
-1.98678e+02,1.49,1.09
-1.98675e+02,1.49,1.91
-1.98672e+02,1.51,1.13
-1.98669e+02,1.49,1.91
-1.98666e+02,1.51,1.13
-1.98662e+02,1.49,1.89
-1.98659e+02,1.49,1.13
-1.98656e+02,1.49,1.93
-1.98653e+02,1.49,1.13
-1.98650e+02,1.49,1.89
-1.98646e+02,1.49,1.15
-1.98643e+02,1.49,1.89
-1.98640e+02,1.49,1.09
-1.98637e+02,1.47,1.93
-1.98634e+02,1.47,1.11
-1.98630e+02,1.47,1.87
-1.98627e+02,1.47,1.11
-1.98624e+02,1.47,1.87
-1.98621e+02,1.47,1.09
-1.98618e+02,1.45,1.87
-1.98614e+02,1.47,1.09
-1.98611e+02,1.45,1.85
-1.98608e+02,1.45,1.09
-1.98605e+02,1.45,1.87
-1.98602e+02,1.45,1.09
-1.98598e+02,1.47,1.87
-1.98595e+02,1.47,1.07
-1.98592e+02,1.45,1.85
-1.98589e+02,1.47,1.09
-1.98586e+02,1.45,1.85
-1.98582e+02,1.47,1.11
-1.98579e+02,1.47,1.83
-1.98576e+02,1.47,1.11
-1.98573e+02,1.47,1.85
-1.98570e+02,1.45,1.11
-1.98566e+02,1.45,1.91
-1.98563e+02,1.45,1.09
-1.98560e+02,1.45,1.89
-1.98557e+02,1.45,1.07
-1.98554e+02,1.45,1.87
-1.98550e+02,1.45,1.07
-1.98547e+02,1.45,1.95
-1.98544e+02,1.45,1.09
-1.98541e+02,1.45,1.85
-1.98538e+02,1.43,1.07
-1.98534e+02,1.43,1.85
-1.98531e+02,1.43,1.03
-1.98528e+02,1.43,1.83
-1.98525e+02,1.45,1.07
-1.98522e+02,1.45,1.87
-1.98518e+02,1.45,1.09
-1.98515e+02,1.45,1.83
-1.98512e+02,1.45,1.07
-1.98509e+02,1.45,1.85
-1.98506e+02,1.45,1.05
-1.98502e+02,1.45,1.85
-1.98499e+02,1.45,1.07
-1.98496e+02,1.45,1.85
-1.98493e+02,1.45,1.09
-1.98490e+02,1.45,1.83
-1.98486e+02,1.45,1.09
-1.98483e+02,1.43,1.87
-1.98480e+02,1.43,1.07
-1.98477e+02,1.43,1.87
-1.98474e+02,1.41,1.07
-1.98470e+02,1.43,1.89
-1.98467e+02,1.43,1.07
-1.98464e+02,1.43,1.89
-1.98461e+02,1.43,1.09
-1.98458e+02,1.41,1.81
-1.98454e+02,1.41,1.07
-1.98451e+02,1.43,1.79
-1.98448e+02,1.43,1.07
-1.98445e+02,1.43,1.83
-1.98442e+02,1.45,1.05
-1.98438e+02,1.45,1.83
-1.98435e+02,1.45,1.07
-1.98432e+02,1.47,1.85
-1.98429e+02,1.47,1.09
-1.98426e+02,1.47,1.83
-1.98422e+02,1.45,1.05
-1.98419e+02,1.45,1.91
-1.98416e+02,1.45,1.09
-1.98413e+02,1.45,1.87
-1.98410e+02,1.45,1.09
-1.98406e+02,1.45,1.83
-1.98403e+02,1.43,1.07
-1.98400e+02,1.43,1.83
-1.98397e+02,1.45,1.07
-1.98394e+02,1.43,1.85
-1.98390e+02,1.45,1.05
-1.98387e+02,1.45,1.85
-1.98384e+02,1.45,1.09
-1.98381e+02,1.45,1.87
-1.98378e+02,1.45,1.07
-1.98374e+02,1.47,1.81
-1.98371e+02,1.47,1.09
-1.98368e+02,1.47,1.85
-1.98365e+02,1.47,1.09
-1.98362e+02,1.47,1.89
-1.98358e+02,1.47,1.09
-1.98355e+02,1.47,1.87
-1.98352e+02,1.47,1.09
-1.98349e+02,1.47,1.87
-1.98346e+02,1.47,1.11
-1.98342e+02,1.45,1.89
-1.98339e+02,1.45,1.09
-1.98336e+02,1.47,1.85
-1.98333e+02,1.47,1.09
-1.98330e+02,1.47,1.85
-1.98326e+02,1.47,1.05
-1.98323e+02,1.47,1.85
-1.98320e+02,1.47,1.11
-1.98317e+02,1.47,1.85
-1.98314e+02,1.47,1.11
-1.98310e+02,1.47,1.87
-1.98307e+02,1.47,1.09
-1.98304e+02,1.47,1.85
-1.98301e+02,1.47,1.05
-1.98298e+02,1.47,1.91
-1.98294e+02,1.49,1.11
-1.98291e+02,1.47,1.89
-1.98288e+02,1.47,1.11
-1.98285e+02,1.47,1.89
-1.98282e+02,1.47,1.11
-1.98278e+02,1.47,1.89
-1.98275e+02,1.47,1.07
-1.98272e+02,1.47,1.87
-1.98269e+02,1.47,1.13
-1.98266e+02,1.47,1.87
-1.98262e+02,1.47,1.11
-1.98259e+02,1.47,1.85
-1.98256e+02,1.49,1.09
-1.98253e+02,1.49,1.91
-1.98250e+02,1.49,1.11
-1.98246e+02,1.49,1.89
-1.98243e+02,1.49,1.11
-1.98240e+02,1.47,1.93
-1.98237e+02,1.47,1.11
-1.98234e+02,1.47,1.87
-1.98230e+02,1.47,1.13
-1.98227e+02,1.47,1.89
-1.98224e+02,1.47,1.11
-1.98221e+02,1.47,1.85
-1.98218e+02,1.47,1.11
-1.98214e+02,1.47,1.85
-1.98211e+02,1.45,1.11
-1.98208e+02,1.47,1.85
-1.98205e+02,1.47,1.09
-1.98202e+02,1.47,1.89
-1.98198e+02,1.47,1.09
-1.98195e+02,1.47,1.83
-1.98192e+02,1.47,1.07
-1.98189e+02,1.47,1.87
-1.98186e+02,1.47,1.09
-1.98182e+02,1.49,1.89
-1.98179e+02,1.49,1.09
-1.98176e+02,1.49,1.87
-1.98173e+02,1.47,1.09
-1.98170e+02,1.49,1.87
-1.98166e+02,1.49,1.11
-1.98163e+02,1.47,1.87
-1.98160e+02,1.47,1.09
-1.98157e+02,1.47,1.93
-1.98154e+02,1.45,1.09
-1.98150e+02,1.47,1.87
-1.98147e+02,1.45,1.11
-1.98144e+02,1.45,1.89
-1.98141e+02,1.47,1.09
-1.98138e+02,1.47,1.83
-1.98134e+02,1.47,1.03
-1.98131e+02,1.47,1.87
-1.98128e+02,1.47,1.09
-1.98125e+02,1.47,1.85
-1.98122e+02,1.45,1.11
-1.98118e+02,1.45,1.89
-1.98115e+02,1.45,1.09
-1.98112e+02,1.45,1.87
-1.98109e+02,1.43,1.09
-1.98106e+02,1.43,1.85
-1.98102e+02,1.43,1.07
-1.98099e+02,1.41,1.85
-1.98096e+02,1.41,1.03
-1.98093e+02,1.41,1.81
-1.98090e+02,1.41,1.05
-1.98086e+02,1.41,1.83
-1.98083e+02,1.41,1.01
-1.98080e+02,1.41,1.81
-1.98077e+02,1.43,1.07
-1.98074e+02,1.43,1.81
-1.98070e+02,1.43,1.05
-1.98067e+02,1.43,1.85
-1.98064e+02,1.43,1.03
-1.98061e+02,1.43,1.87
-1.98058e+02,1.43,1.03
-1.98054e+02,1.43,1.81
-1.98051e+02,1.43,1.09
-1.98048e+02,1.41,1.81
-1.98045e+02,1.41,1.05
-1.98042e+02,1.41,1.83
-1.98038e+02,1.41,1.03
-1.98035e+02,1.43,1.79
-1.98032e+02,1.43,1.05
-1.98029e+02,1.43,1.81
-1.98026e+02,1.43,1.05
-1.98022e+02,1.45,1.81
-1.98019e+02,1.45,1.05
-1.98016e+02,1.45,1.85
-1.98013e+02,1.45,1.07
-1.98010e+02,1.45,1.81
-1.98006e+02,1.45,1.09
-1.98003e+02,1.47,1.85
-1.98000e+02,1.47,1.09
-1.97997e+02,1.47,1.87
-1.97994e+02,1.47,1.09
-1.97990e+02,1.47,1.91
-1.97987e+02,1.45,1.11
-1.97984e+02,1.45,1.87
-1.97981e+02,1.45,1.09
-1.97978e+02,1.45,1.87
-1.97974e+02,1.45,1.07
-1.97971e+02,1.45,1.83
-1.97968e+02,1.45,1.09
-1.97965e+02,1.45,1.83
-1.97962e+02,1.45,1.07
-1.97958e+02,1.45,1.85
-1.97955e+02,1.45,1.07
-1.97952e+02,1.45,1.87
-1.97949e+02,1.47,1.09
-1.97946e+02,1.45,1.89
-1.97942e+02,1.47,1.11
-1.97939e+02,1.47,1.85
-1.97936e+02,1.47,1.07
-1.97933e+02,1.47,1.85
-1.97930e+02,1.47,1.11
-1.97926e+02,1.45,1.85
-1.97923e+02,1.45,1.11
-1.97920e+02,1.45,1.85
-1.97917e+02,1.45,1.11
-1.97914e+02,1.45,1.85
-1.97910e+02,1.45,1.07
-1.97907e+02,1.45,1.83
-1.97904e+02,1.43,1.09
-1.97901e+02,1.43,1.87
-1.97898e+02,1.43,1.07
-1.97894e+02,1.43,1.85
-1.97891e+02,1.45,1.07
-1.97888e+02,1.45,1.83
-1.97885e+02,1.45,1.07
-1.97882e+02,1.45,1.85
-1.97878e+02,1.43,1.07
-1.97875e+02,1.43,1.85
-1.97872e+02,1.43,1.05
-1.97869e+02,1.43,1.85
-1.97866e+02,1.45,1.09
-1.97862e+02,1.45,1.89
-1.97859e+02,1.43,1.09
-1.97856e+02,1.45,1.83
-1.97853e+02,1.43,1.07
-1.97850e+02,1.45,1.85
-1.97846e+02,1.45,1.07
-1.97843e+02,1.45,1.83
-1.97840e+02,1.45,1.11
-1.97837e+02,1.45,1.87
-1.97834e+02,1.45,1.11
-1.97830e+02,1.45,1.89
-1.97827e+02,1.45,1.07
-1.97824e+02,1.45,1.87
-1.97821e+02,1.45,1.05
-1.97818e+02,1.45,1.83
-1.97814e+02,1.45,1.09
-1.97811e+02,1.47,1.85
-1.97808e+02,1.47,1.05
-1.97805e+02,1.47,1.85
-1.97802e+02,1.47,1.11
-1.97798e+02,1.47,1.87
-1.97795e+02,1.47,1.11
-1.97792e+02,1.45,1.87
-1.97789e+02,1.45,1.11
-1.97786e+02,1.45,1.85
-1.97782e+02,1.45,1.09
-1.97779e+02,1.45,1.85
-1.97776e+02,1.47,1.09
-1.97773e+02,1.47,1.87
-1.97770e+02,1.47,1.07
-1.97766e+02,1.47,1.87
-1.97763e+02,1.47,1.09
-1.97760e+02,1.47,1.93
-1.97757e+02,1.47,1.09
-1.97754e+02,1.47,1.87
-1.97750e+02,1.47,1.11
-1.97747e+02,1.47,1.85
-1.97744e+02,1.45,1.11
-1.97741e+02,1.45,1.85
-1.97738e+02,1.45,1.09
-1.97734e+02,1.45,1.87
-1.97731e+02,1.45,1.07
-1.97728e+02,1.45,1.87
-1.97725e+02,1.45,1.07
-1.97722e+02,1.47,1.87
-1.97718e+02,1.47,1.09
-1.97715e+02,1.47,1.87
-1.97712e+02,1.47,1.09
-1.97709e+02,1.47,1.89
-1.97706e+02,1.47,1.11
-1.97702e+02,1.47,1.87
-1.97699e+02,1.49,1.11
-1.97696e+02,1.47,1.87
-1.97693e+02,1.49,1.13
-1.97690e+02,1.49,1.89
-1.97686e+02,1.51,1.09
-1.97683e+02,1.49,1.91
-1.97680e+02,1.49,1.11
-1.97677e+02,1.49,1.91
-1.97674e+02,1.49,1.13
-1.97670e+02,1.49,1.87
-1.97667e+02,1.49,1.13
-1.97664e+02,1.49,1.87
-1.97661e+02,1.49,1.13
-1.97658e+02,1.49,1.89
-1.97654e+02,1.49,1.13
-1.97651e+02,1.49,1.91
-1.97648e+02,1.49,1.13
-1.97645e+02,1.49,1.89
-1.97642e+02,1.49,1.15
-1.97638e+02,1.49,1.89
-1.97635e+02,1.49,1.13
-1.97632e+02,1.49,1.87
-1.97629e+02,1.49,1.13
-1.97626e+02,1.49,1.93
-1.97622e+02,1.47,1.09
-1.97619e+02,1.47,1.87
-1.97616e+02,1.47,1.11
-1.97613e+02,1.47,1.87
-1.97610e+02,1.47,1.07
-1.97606e+02,1.45,1.89
-1.97603e+02,1.45,1.11
-1.97600e+02,1.45,1.87
-1.97597e+02,1.45,1.09
-1.97594e+02,1.45,1.83
-1.97590e+02,1.45,1.09
-1.97587e+02,1.45,1.85
-1.97584e+02,1.45,1.11
-1.97581e+02,1.43,1.81
-1.97578e+02,1.43,1.07
-1.97574e+02,1.45,1.83
-1.97571e+02,1.45,1.07
-1.97568e+02,1.45,1.85
-1.97565e+02,1.45,1.05
-1.97562e+02,1.45,1.85
-1.97558e+02,1.45,1.07
-1.97555e+02,1.45,1.85
-1.97552e+02,1.47,1.09
-1.97549e+02,1.47,1.83
-1.97546e+02,1.47,1.07
-1.97542e+02,1.47,1.87
-1.97539e+02,1.47,1.13
-1.97536e+02,1.47,1.85
-1.97533e+02,1.47,1.09
-1.97530e+02,1.47,1.93
-1.97526e+02,1.45,1.07
-1.97523e+02,1.45,1.89
-1.97520e+02,1.45,1.05
-1.97517e+02,1.47,1.87
-1.97514e+02,1.47,1.09
-1.97510e+02,1.47,1.83
-1.97507e+02,1.47,1.09
-1.97504e+02,1.47,1.87
-1.97501e+02,1.47,1.11
-1.97498e+02,1.47,1.85
-1.97494e+02,1.47,1.09
-1.97491e+02,1.47,1.85
-1.97488e+02,1.47,1.11
-1.97485e+02,1.47,1.87
-1.97482e+02,1.47,1.09
-1.97478e+02,1.47,1.85
-1.97475e+02,1.47,1.09
-1.97472e+02,1.47,1.89
-1.97469e+02,1.47,1.09
-1.97466e+02,1.47,1.87
-1.97462e+02,1.47,1.09
-1.97459e+02,1.47,1.87
-1.97456e+02,1.47,1.13
-1.97453e+02,1.47,1.87
-1.97450e+02,1.47,1.11
-1.97446e+02,1.47,1.87
-1.97443e+02,1.47,1.05
-1.97440e+02,1.45,1.87
-1.97437e+02,1.45,1.09
-1.97434e+02,1.45,1.85
-1.97430e+02,1.45,1.09
-1.97427e+02,1.45,1.85
-1.97424e+02,1.45,1.09
-1.97421e+02,1.45,1.85
-1.97418e+02,1.47,1.09
-1.97414e+02,1.45,1.85
-1.97411e+02,1.47,1.07
-1.97408e+02,1.47,1.87
-1.97405e+02,1.47,1.11
-1.97402e+02,1.47,1.85
-1.97398e+02,1.47,1.09
-1.97395e+02,1.47,1.85
-1.97392e+02,1.47,1.09
-1.97389e+02,1.47,1.89
-1.97386e+02,1.47,1.11
-1.97382e+02,1.47,1.87
-1.97379e+02,1.47,1.11
-1.97376e+02,1.47,1.89
-1.97373e+02,1.49,1.11
-1.97370e+02,1.49,1.89
-1.97366e+02,1.49,1.13
-1.97363e+02,1.49,1.87
-1.97360e+02,1.47,1.11
-1.97357e+02,1.45,1.89
-1.97354e+02,1.45,1.09
-1.97350e+02,1.45,1.87
-1.97347e+02,1.45,1.07
-1.97344e+02,1.45,1.83
-1.97341e+02,1.45,1.09
-1.97338e+02,1.45,1.81
-1.97334e+02,1.45,1.09
-1.97331e+02,1.45,1.85
-1.97328e+02,1.45,1.09
-1.97325e+02,1.45,1.85
-1.97322e+02,1.45,1.09
-1.97318e+02,1.45,1.85
-1.97315e+02,1.45,1.09
-1.97312e+02,1.45,1.85
-1.97309e+02,1.43,1.09
-1.97306e+02,1.43,1.85
-1.97302e+02,1.43,1.07
-1.97299e+02,1.43,1.87
-1.97296e+02,1.43,1.05
-1.97293e+02,1.45,1.83
-1.97290e+02,1.45,1.05
-1.97286e+02,1.45,1.83
-1.97283e+02,1.43,1.09
-1.97280e+02,1.45,1.87
-1.97277e+02,1.45,1.07
-1.97274e+02,1.45,1.83
-1.97270e+02,1.45,1.09
-1.97267e+02,1.45,1.85
-1.97264e+02,1.45,1.05
